APScheduler==3.7.0
bleach==3.3.0
django-braces==1.14.0
django-dramatiq==0.10.0
django-extensions==3.1.1
django-recaptcha==2.0.6
django-reversion==3.0.9
django-sendfile==0.3.11
django-taggit==1.3.0
Django==3.2.3
dramatiq[redis, watch]==1.10.0
easy-thumbnails==2.7.1
Pillow==8.1.0
psycopg2==2.8.6
python-dateutil==2.8.1
pytz==2020.1
raygun4py==4.3.0
redis==3.5.3
sparkpost==1.3.6
wagtail==2.13.1
